Avance2_Arreglado
…
cat("Filas después del join:", nrow(resultado), "\n")

Filas después del join: 1404 

Filtrado del Grupo

Se realizó un proceso de integración y depuración de las bases de datos provenientes de las encuestas y mediciones ambientales con el objetivo de construir una base consistente para el análisis estadístico.

#Renombrando la columna de ¿Qué grupo lo/la está encuestando?
resultado <- rename(resultado, GrupoEncuestador = `¿Qué grupo lo/la está encuestando?`)
resultados_grupo1 <- filter(resultado, GrupoEncuestador  == "Grupo 1")
resultados_grupo1

# A tibble: 128 × 38
   ID          `Marca temporal.x`  GrupoEncuestador ¿En qué horario está llena…¹
   <chr>       <chr>               <chr>            <chr>                       
 1 9A3-2904-13 29/04/2026 14:14:44 Grupo 1          13                          
 2 9A3-3004-13 30/04/2026 10:59:56 Grupo 1          13                          
 3 3A1-3004-13 30/04/2026 15:51:00 Grupo 1          13                          
 4 3A1-3004-13 30/04/2026 16:03:42 Grupo 1          13                          
 5 3A1-3004-13 30/04/2026 16:34:46 Grupo 1          13                          
 6 3A2-3004-13 30/04/2026 16:37:37 Grupo 1          13                          
 7 9A3-3004-13 30/04/2026 16:40:00 Grupo 1          13                          
 8 9A4-3004-13 30/04/2026 16:41:18 Grupo 1          13                          
 9 9A3-3004-13 30/04/2026 16:41:24 Grupo 1          13                          
10 9A3-3004-13 30/04/2026 16:42:31 Grupo 1          13                          
# ℹ 118 more rows
# ℹ abbreviated name: ¹​`¿En qué horario está llenando el formulario?.x`
# ℹ 34 more variables: `¿En qué torre se encuentra?.x` <chr>, Piso.x <dbl>,
#   Ambiente.x <dbl>, `Nivel de ventilación` <dbl>, `Nivel de seguridad` <dbl>,
#   `Nivel de sensación térmica` <dbl>, `Intensidad de la luz` <dbl>,
#   `Nivel de conservación` <dbl>, `Nivel de privacidad` <dbl>,
#   `Nivel de comodidad` <dbl>, `Frecuencia de uso del ambiente` <dbl>, …
…
resultados_grupo1 <- resultados_grupo1 %>% rename(
    `Grupo` = `GrupoEncuestador`,
    `Temp. Amb.` = `Temperatura ambiental`,
    `Cant. de luminarias` = `Cantidad de luminarias (focos) funcionando`,
    `Propósito` = `Propósito en la comunidad`,
    `Fuente de ruido` = `Fuente principal de ruido`,
    `Distractores`= `Tipo de distractores no relacionados con su propósito`,
    `Frecuencia de uso`=`Frecuencia de uso del ambiente`,
    `Facilidad para estudiar`=`Nivel de facilidad para estudiar en el ambiente`
  )

resultados_grupo1

# A tibble: 128 × 19
   ID         Grupo  Piso Ambiente Nivel de presión son…¹ `Nivel de iluminancia`
   <chr>      <chr> <dbl>    <dbl> <chr>                  <chr>                 
 1 9A3-2904-… Grup…     9        3 -53.7                  11.88                 
 2 9A3-3004-… Grup…     9        3 131.29                 435.16                
 3 3A1-3004-… Grup…     3        1 145.18                 347.06                
 4 3A1-3004-… Grup…     3        1 145.18                 347.06                
 5 3A1-3004-… Grup…     3        1 145.18                 347.06                
 6 3A2-3004-… Grup…     3        2 162.37                 74.71                 
 7 9A3-3004-… Grup…     9        3 131.29                 435.16                
 8 9A4-3004-… Grup…     9        4 147.78                 898.95                
 9 9A3-3004-… Grup…     9        3 131.29                 435.16                
10 9A3-3004-… Grup…     9        3 131.29                 435.16                
# ℹ 118 more rows
# ℹ abbreviated name: ¹​`Nivel de presión sonora (dB)`
# ℹ 13 more variables: `Temp. Amb.` <dbl>, `N° de personas presentes` <dbl>,
#   `N° de tomacorrientes disponibles` <dbl>, `Cant. de luminarias` <chr>,
#   Propósito <chr>, `Fuente de luz` <chr>, `Fuente de ruido` <chr>,
#   Distractores <chr>, `Frecuencia de uso` <dbl>,
#   `Nivel de conservación` <dbl>, `Nivel de comodidad` <dbl>, …

Detección de malos datos en la variable de ilumarias

resultados_grupo1 <- resultados_grupo1 %>% mutate(`Cant. de luminarias` = case_when(
  `Cant. de luminarias` == 'Todos' ~ NA,
  TRUE ~ `Cant. de luminarias`
)) %>% mutate(`Cant. de luminarias` = strtoi(`Cant. de luminarias`))

Validación de nulos

resultados_grupo1

# A tibble: 128 × 19
   ID         Grupo  Piso Ambiente Nivel de presión son…¹ `Nivel de iluminancia`
   <chr>      <chr> <dbl>    <dbl> <chr>                  <chr>                 
 1 9A3-2904-… Grup…     9        3 -53.7                  11.88                 
 2 9A3-3004-… Grup…     9        3 131.29                 435.16                
 3 3A1-3004-… Grup…     3        1 145.18                 347.06                
 4 3A1-3004-… Grup…     3        1 145.18                 347.06                
 5 3A1-3004-… Grup…     3        1 145.18                 347.06                
 6 3A2-3004-… Grup…     3        2 162.37                 74.71                 
 7 9A3-3004-… Grup…     9        3 131.29                 435.16                
 8 9A4-3004-… Grup…     9        4 147.78                 898.95                
 9 9A3-3004-… Grup…     9        3 131.29                 435.16                
10 9A3-3004-… Grup…     9        3 131.29                 435.16                
# ℹ 118 more rows
# ℹ abbreviated name: ¹​`Nivel de presión sonora (dB)`
# ℹ 13 more variables: `Temp. Amb.` <dbl>, `N° de personas presentes` <dbl>,
#   `N° de tomacorrientes disponibles` <dbl>, `Cant. de luminarias` <int>,
#   Propósito <chr>, `Fuente de luz` <chr>, `Fuente de ruido` <chr>,
#   Distractores <chr>, `Frecuencia de uso` <dbl>,
#   `Nivel de conservación` <dbl>, `Nivel de comodidad` <dbl>, …
…
Se identificaron valores faltantes significativos en las variables consideradas para el estudio.

Limpiamos los NA

resultados_grupo1 <- na.omit(resultados_grupo1)

resultados_grupo1

# A tibble: 125 × 19
   ID         Grupo  Piso Ambiente Nivel de presión son…¹ `Nivel de iluminancia`
   <chr>      <chr> <dbl>    <dbl> <chr>                  <chr>                 
 1 9A3-2904-… Grup…     9        3 -53.7                  11.88                 
 2 9A3-3004-… Grup…     9        3 131.29                 435.16                
 3 3A1-3004-… Grup…     3        1 145.18                 347.06                
 4 3A1-3004-… Grup…     3        1 145.18                 347.06                
 5 3A1-3004-… Grup…     3        1 145.18                 347.06                
 6 3A2-3004-… Grup…     3        2 162.37                 74.71                 
 7 9A3-3004-… Grup…     9        3 131.29                 435.16                
 8 9A4-3004-… Grup…     9        4 147.78                 898.95                
 9 9A3-3004-… Grup…     9        3 131.29                 435.16                
10 9A3-3004-… Grup…     9        3 131.29                 435.16                
# ℹ 115 more rows
# ℹ abbreviated name: ¹​`Nivel de presión sonora (dB)`
# ℹ 13 more variables: `Temp. Amb.` <dbl>, `N° de personas presentes` <dbl>,
#   `N° de tomacorrientes disponibles` <dbl>, `Cant. de luminarias` <int>,
#   Propósito <chr>, `Fuente de luz` <chr>, `Fuente de ruido` <chr>,
#   Distractores <chr>, `Frecuencia de uso` <dbl>,
#   `Nivel de conservación` <dbl>, `Nivel de comodidad` <dbl>, …
…
resultados_grupo1

# A tibble: 125 × 19
   ID         Grupo  Piso Ambiente Nivel de presión son…¹ `Nivel de iluminancia`
   <chr>      <chr> <dbl> <fct>                     <dbl>                  <dbl>
 1 9A3-2904-… Grup…     9 3                         -53.7                   11.9
 2 9A3-3004-… Grup…     9 3                         131.                   435. 
 3 3A1-3004-… Grup…     3 1                         145.                   347. 
 4 3A1-3004-… Grup…     3 1                         145.                   347. 
 5 3A1-3004-… Grup…     3 1                         145.                   347. 
 6 3A2-3004-… Grup…     3 2                         162.                    74.7
 7 9A3-3004-… Grup…     9 3                         131.                   435. 
 8 9A4-3004-… Grup…     9 4                         148.                   899. 
 9 9A3-3004-… Grup…     9 3                         131.                   435. 
10 9A3-3004-… Grup…     9 3                         131.                   435. 
# ℹ 115 more rows
# ℹ abbreviated name: ¹​`Nivel de presión sonora (dB)`
# ℹ 13 more variables: `Temp. Amb.` <dbl>, `N° de personas presentes` <dbl>,
#   `N° de tomacorrientes disponibles` <dbl>, `Cant. de luminarias` <int>,
#   Propósito <fct>, `Fuente de luz` <fct>, `Fuente de ruido` <fct>,
#   Distractores <fct>, `Frecuencia de uso` <ord>,
#   `Nivel de conservación` <ord>, `Nivel de comodidad` <ord>, …
…
