Avance2
…
Warning in inner_join(Encuentas, Ambientales, by = "ID"): Detected an unexpected many-to-many relationship between `x` and `y`.
ℹ Row 195 of `x` matches multiple rows in `y`.
ℹ Row 1 of `y` matches multiple rows in `x`.
ℹ If a many-to-many relationship is expected, set `relationship =
  "many-to-many"` to silence this warning.

#Renombrando la columna de ¿Qué grupo lo/la está encuestando?
resultado <- rename(resultado, GrupoEncuestador = `¿Qué grupo lo/la está encuestando?`)

#filtrado por grupo 1
resultados_grupo1 <- filter(resultado, GrupoEncuestador  == "Grupo 1")

resultados_grupo1

# A tibble: 24 × 36
   ID          `Marca temporal.x`  GrupoEncuestador ¿En qué horario está llena…¹
   <chr>       <chr>               <chr>            <chr>                       
 1 9A3-2904-13 29/04/2026 14:14:44 Grupo 1          13                          
 2 9A3-3004-13 30/04/2026 10:59:56 Grupo 1          13                          
 3 3A1-3004-13 30/04/2026 15:51:00 Grupo 1          13                          
 4 3A1-3004-13 30/04/2026 16:03:42 Grupo 1          13                          
 5 3A1-3004-13 30/04/2026 16:34:46 Grupo 1          13                          
 6 3A2-3004-13 30/04/2026 16:37:37 Grupo 1          13                          
 7 9A3-3004-13 30/04/2026 16:40:00 Grupo 1          13                          
 8 9A4-3004-13 30/04/2026 16:41:18 Grupo 1          13                          
 9 9A3-3004-13 30/04/2026 16:41:24 Grupo 1          13                          
10 9A3-3004-13 30/04/2026 16:42:31 Grupo 1          13                          
# ℹ 14 more rows
# ℹ abbreviated name: ¹​`¿En qué horario está llenando el formulario?.x`
# ℹ 32 more variables: `¿En qué torre se encuentra?.x` <chr>, Piso.x <dbl>,
#   Ambiente.x <dbl>, `Nivel de ventilación` <dbl>, `Nivel de seguridad` <dbl>,
#   `Nivel de sensación térmica` <dbl>, `Intensidad de la luz` <dbl>,
#   `Nivel de conservación` <dbl>, `Nivel de privacidad` <dbl>,
#   `Nivel de comodidad` <dbl>, `Frecuencia de uso del ambiente` <dbl>, …
…
resultados_grupo1

# A tibble: 24 × 30
   ID          `Marca temporal`    GrupoEncuestador ¿En qué horario está llena…¹
   <chr>       <chr>               <chr>            <chr>                       
 1 9A3-2904-13 29/04/2026 14:14:44 Grupo 1          13                          
 2 9A3-3004-13 30/04/2026 10:59:56 Grupo 1          13                          
 3 3A1-3004-13 30/04/2026 15:51:00 Grupo 1          13                          
 4 3A1-3004-13 30/04/2026 16:03:42 Grupo 1          13                          
 5 3A1-3004-13 30/04/2026 16:34:46 Grupo 1          13                          
 6 3A2-3004-13 30/04/2026 16:37:37 Grupo 1          13                          
 7 9A3-3004-13 30/04/2026 16:40:00 Grupo 1          13                          
 8 9A4-3004-13 30/04/2026 16:41:18 Grupo 1          13                          
 9 9A3-3004-13 30/04/2026 16:41:24 Grupo 1          13                          
10 9A3-3004-13 30/04/2026 16:42:31 Grupo 1          13                          
# ℹ 14 more rows
# ℹ abbreviated name: ¹​`¿En qué horario está llenando el formulario?`
# ℹ 26 more variables: `¿En qué torre se encuentra?` <chr>, Piso <dbl>,
#   Ambiente <dbl>, `Nivel de ventilación` <dbl>, `Nivel de seguridad` <dbl>,
#   `Nivel de sensación térmica` <dbl>, `Intensidad de la luz` <dbl>,
#   `Nivel de conservación` <dbl>, `Nivel de privacidad` <dbl>,
#   `Nivel de comodidad` <dbl>, `Frecuencia de uso del ambiente` <dbl>, …
…
resultados_grupo1 <- resultados_grupo1 %>% rename(
    `Grupo` = `GrupoEncuestador`,
    `Torre` = `¿En qué torre se encuentra?`,
    `Temp. Amb.` = `Temperatura ambiental`,
    `Cant. de iluminarias` = `Cantidad de luminarias (focos) funcionando`,
    `Propósito` = `Propósito en la comunidad`,
    `Fuente de ruido` = `Fuente principal de ruido`,
    `Distractores`= `Tipo de distractores no relacionados con su propósito`,
    `Frecuencia de uso`=`Frecuencia de uso del ambiente`,
    `Facilidad para estudiar`=`Nivel de facilidad para estudiar en el ambiente`
  )

resultados_grupo1

# A tibble: 24 × 20
   ID          Grupo   Torre  Piso Ambiente `Nivel de presión sonora (dB)`
   <chr>       <chr>   <chr> <dbl>    <dbl> <chr>                         
 1 9A3-2904-13 Grupo 1 A         9        3 -53.7                         
 2 9A3-3004-13 Grupo 1 A         9        3 131.29                        
 3 3A1-3004-13 Grupo 1 A         3        1 145.18                        
 4 3A1-3004-13 Grupo 1 A         3        1 145.18                        
 5 3A1-3004-13 Grupo 1 A         3        1 145.18                        
 6 3A2-3004-13 Grupo 1 A         3        2 162.37                        
 7 9A3-3004-13 Grupo 1 A         9        3 131.29                        
 8 9A4-3004-13 Grupo 1 A         9        4 147.78                        
 9 9A3-3004-13 Grupo 1 A         9        3 131.29                        
10 9A3-3004-13 Grupo 1 A         9        3 131.29                        
# ℹ 14 more rows
# ℹ 14 more variables: `Nivel de iluminancia` <chr>, `Temp. Amb.` <dbl>,
#   `N° de personas presentes` <dbl>, `N° de tomacorrientes disponibles` <dbl>,
#   `Cant. de iluminarias` <chr>, Propósito <chr>, `Fuente de luz` <chr>,
#   `Fuente de ruido` <chr>, Distractores <chr>, `Frecuencia de uso` <dbl>,
#   `Nivel de conservación` <dbl>, `Nivel de comodidad` <dbl>,
#   `Facilidad para estudiar` <dbl>, `Intensidad de la luz` <dbl>
…
# Eliminando variables sin variabilidad
resultados_sin_varianza <- resultados_grupo1 %>%
  select(-Grupo, -Torre)
resultados_sin_varianza

# A tibble: 24 × 18
   ID           Piso Ambiente Nivel de presión sonora (…¹ `Nivel de iluminancia`
   <chr>       <dbl>    <dbl> <chr>                       <chr>                 
 1 9A3-2904-13     9        3 -53.7                       11.88                 
 2 9A3-3004-13     9        3 131.29                      435.16                
 3 3A1-3004-13     3        1 145.18                      347.06                
 4 3A1-3004-13     3        1 145.18                      347.06                
 5 3A1-3004-13     3        1 145.18                      347.06                
 6 3A2-3004-13     3        2 162.37                      74.71                 
 7 9A3-3004-13     9        3 131.29                      435.16                
 8 9A4-3004-13     9        4 147.78                      898.95                
 9 9A3-3004-13     9        3 131.29                      435.16                
10 9A3-3004-13     9        3 131.29                      435.16                
# ℹ 14 more rows
# ℹ abbreviated name: ¹​`Nivel de presión sonora (dB)`
# ℹ 13 more variables: `Temp. Amb.` <dbl>, `N° de personas presentes` <dbl>,
#   `N° de tomacorrientes disponibles` <dbl>, `Cant. de iluminarias` <chr>,
#   Propósito <chr>, `Fuente de luz` <chr>, `Fuente de ruido` <chr>,
#   Distractores <chr>, `Frecuencia de uso` <dbl>,
#   `Nivel de conservación` <dbl>, `Nivel de comodidad` <dbl>, …
…
